Map Name	Width	Height	Long deg	Long min	Lat deg	Lat min	∂Long min	∂Lat min
k-37-21-1-2.png	4096	3769	40	7.5	43	35	7.5	5
k-37-21-1-3.png	5169	4749	40	0	43	30	7.5	5
k-37-21-1-4.png	5178	4754	40	7.5	43	30	7.5	5
k-37-21-2-1.png	5183	4773	40	15	43	35	7.5	5
k-37-21-2-3.png	5190	4771	40	15	43	30	7.5	5
k-37-21-2-4.png	5185	4770	40	22.5	43	30	7.5	5
k-37-21-3-1.png	5179	4753	40	0	43	25	7.5	5
k-37-21-3-2.png	5186	4758	40	7.5	43	25	7.5	5
k-37-21-3-3.png	4096	3751	40	0	43	20	7.5	5
k-37-21-3-4.png	5198	4765	40	7.5	43	20	7.5	5
k-37-21-4-1.png	5194	4769	40	15	43	25	7.5	5
k-37-21-4-2.png	5194	4774	40	22.5	43	25	7.5	5
k-37-21-4-3.png	5202	4766	40	15	43	20	7.5	5
k-37-21-4-4.png	5206	4774	40	22.5	43	20	7.5	5
k-37-22-1-3.png	5202	4787	40	30	43	30	7.5	5
k-37-22-1-4.png	5208	4792	40	37.5	43	30	7.5	5
k-37-22-3-1.png	5203	4780	40	30	43	25	7.5	5
k-37-22-3-2.png	5210	4781	40	37.5	43	25	7.5	5
k-37-22-3-3.png	5213	4781	40	30	43	20	7.5	5
k-37-22-3-4.png	5220	4789	40	37.5	43	20	7.5	5
k-37-33-1-2.png	5201	4757	40	7.5	43	15	7.5	5
k-37-33-2-1.png	5200	4757	40	15	43	15	7.5	5
k-37-33-2-2.png	5211	4770	40	22.5	43	15	7.5	5
k-37-33-2-3.png	5212	4766	40	15	43	10	7.5	5
k-37-33-2-4.png	5217	4775	40	22.5	43	10	7.5	5
k-37-33-4-1.png	5219	4764	40	15	43	5	7.5	5
k-37-33-4-2.png	5225	4779	40	22.5	43	5	7.5	5
k-37-34-1-1.png	5226	4785	40	30	43	15	7.5	5
k-37-34-1-2.png	5226	4793	40	37.5	43	15	7.5	5
k-37-34-1-3.png	5226	4783	40	30	43	10	7.5	5
k-37-34-1-4.png	5232	4784	40	37.5	43	10	7.5	5
k-37-34-3-1.png	5228	4777	40	30	43	5	7.5	5
k-37-34-3-2.png	5239	4789	40	37.5	43	5	7.5	5
k-37-48-4-1.png	5329	4854	41	45	42	45	7.5	5
k-37-48-4-2.png	5340	4872	41	52.5	42	45	7.5	5
k-37-48-4-3.png	5333	4858	41	45	42	40	7.5	5
k-37-48-4-4.png	5347	4875	41	52.5	42	40	7.5	5
k-38-37-3-1.png	5331	4857	42	0	42	45	7.5	5
k-38-37-3-2.png	5337	4866	42	7.5	42	45	7.5	5
k-38-37-3-3.png	5341	4868	42	0	42	40	7.5	5
k-38-37-3-4.png	5336	4862	42	7.5	42	40	7.5	5
k-38-49-1-1.png	5359	4882	42	0	42	35	7.5	5
k-38-49-1-2.png	5347	4863	42	7.5	42	35	7.5	5
k-38-49-1-3.png	5351	4859	42	0	42	30	7.5	5
k-38-49-1-4.png	5356	4854	42	7.5	42	30	7.5	5
k-38-49-2-1.png	5359	4885	42	15	42	35	7.5	5
k-38-49-2-2.png	5339	4858	42	22.5	42	35	7.5	5
k-38-49-2-3.png	5355	4860	42	15	42	30	7.5	5
k-38-49-2-4.png	5348	4862	42	22.5	42	30	7.5	5
k-38-49-4-1.png	5339	4842	42	15	42	25	7.5	5
k-38-49-4-2.png	5338	4836	42	22.5	42	25	7.5	5
k-38-49-4-3.png	5346	4841	42	15	42	20	7.5	5
k-38-49-4-4.png	5345	4835	42	22.5	42	20	7.5	5
k-38-50-1-1.png	5344	4847	42	30	42	35	7.5	5
k-38-50-1-2.png	5322	4836	42	37.5	42	35	7.5	5
k-38-50-1-3.png	5335	4837	42	30	42	30	7.5	5
k-38-50-1-4.png	5330	4845	42	37.5	42	30	7.5	5
k-38-50-2-1.png	5298	4809	42	45	42	35	7.5	5
k-38-50-2-2.png	5296	4798	42	52.5	42	35	7.5	5
k-38-50-2-3.png	5305	4811	42	45	42	30	7.5	5
k-38-50-2-4.png	5298	4801	42	52.5	42	30	7.5	5
k-38-50-3-1.png	5334	4831	42	30	42	25	7.5	5
k-38-50-3-2.png	5319	4817	42	37.5	42	25	7.5	5
k-38-50-3-3.png	5335	4830	42	30	42	20	7.5	5
k-38-50-3-4.png	5341	4833	42	37.5	42	20	7.5	5
k-38-50-4-1.png	5317	4813	42	45	42	25	7.5	5
k-38-50-4-2.png	5303	4804	42	52.5	42	25	7.5	5
k-38-50-4-3.png	5318	4810	42	45	42	20	7.5	5
k-38-50-4-4.png	5317	4810	42	52.5	42	20	7.5	5
k-38-51-1-3.png	5289	4796	43	0	42	30	7.5	5
k-38-51-1-4.png	5285	4786	43	7.5	42	30	7.5	5
k-38-51-2-3.png	5284	4790	43	15	42	30	7.5	5
k-38-51-2-4.png	5273	4777	43	22.5	42	30	7.5	5
k-38-51-3-1.png	5297	4791	43	0	42	25	7.5	5
k-38-51-3-2.png	5293	4788	43	7.5	42	25	7.5	5
k-38-51-3-3.png	5302	4791	43	0	42	20	7.5	5
k-38-51-3-4.png	5303	4791	43	7.5	42	20	7.5	5
k-38-51-4-1.png	5287	4785	43	15	42	25	7.5	5
k-38-51-4-2.png	5282	4782	43	22.5	42	25	7.5	5
k-38-51-4-3.png	5290	4778	43	15	42	20	7.5	5
k-38-51-4-4.png	5284	4779	43	22.5	42	20	7.5	5
k-38-52-1-3.png	5273	4774	43	30	42	30	7.5	5
k-38-52-3-1.png	5276	4768	43	30	42	25	7.5	5
k-38-62-1-1.png	5338	4823	42	30	42	15	7.5	5
k-38-62-1-2.png	5336	4817	42	37.5	42	15	7.5	5
k-38-62-1-3.png	5358	4840	42	30	42	10	7.5	5
k-38-62-1-4.png	5349	4828	42	37.5	42	10	7.5	5
k-38-62-2-1.png	5325	4810	42	45	42	15	7.5	5
k-38-62-2-2.png	5320	4804	42	52.5	42	15	7.5	5
k-38-62-2-3.png	5329	4807	42	45	42	10	7.5	5
k-38-62-2-4.png	5322	4801	42	52.5	42	10	7.5	5
k-38-62-4-2.png	5344	4812	42	52.5	42	5	7.5	5
k-38-63-1-1.png	5310	4790	43	0	42	15	7.5	5
k-38-63-1-2.png	5305	4787	43	7.5	42	15	7.5	5
k-38-63-1-3.png	5323	4794	43	0	42	10	7.5	5
k-38-63-1-4.png	5316	4801	43	7.5	42	10	7.5	5
k-38-63-3-1.png	5325	4795	43	0	42	5	7.5	5
k-38-63-3-2.png	5314	4783	43	7.5	42	5	7.5	5